446761 280583
372201 363481
700917 105833
284321 762051
224987 665010
384412 978133
550115 203745
373433 448346
719427 30122
614062 20658
587869 875485
764658 233546
395281 857132
128561 866913
820498 863944
250443 500002
5739 759215
860848 711544
875721 131331
238996 886611
36772 222579
789751 523732
941816 664278
41899 745238
817614 489850
133392 503263
8996 732292
179473 672229
739678 362254
19806 383259
304541 873960
13195 583294
247659 715452
675981 40294
568874 285064
264386 134715
333082 110868
636295 400500
683770 586834
640921 128014
919598 259523
458518 785675
414667 21920
362668 814903
335423 864261
955560 901273
952000 675057
494589 867979
372007 136287
694771 891644
520657 9587
404470 244978
167024 907933
901734 831372
96649 656325
749650 34704
814311 832618
584580 138590
30405 545438
580452 345419
771227 413896
147293 844738
602498 492900
495900 716400
18632 426929
210668 580761
903785 495986
383575 331013
941700 225202
195819 854290
588032 5812
650452 19539
63801 580032
340620 85029
201099 304393
374027 320923
222366 758318
762551 796551
355534 709914
163322 298410
710915 123271
900895 952134
447128 400218
596024 851317
589259 93482
79795 407199
224492 798642
683039 498712
51150 403693
538455 643457
170690 318334
578602 191195
128334 12787
592554 699416
137891 922690
839761 295094
158222 411870
457604 740574
45711 694492
140404 558528
493027 905069
208503 772049
412032 833142
636389 409501
785922 837163
426292 781240
731878 346335
825863 344314
577600 168843
818705 224554
245566 220006
924858 893327
135413 330270
444531 126943
843838 16837
637082 523356
840131 113229
758532 449841
706491 273403
633544 100710
661493 310012
824627 813954
776953 751526
431404 240002
313582 432150
287232 703100
567870 96732
260182 786261
558437 384472
465126 927878
170566 858159
715778 512172
997304 739691
390111 27441
220208 898624
960093 551051
140415 798832
846945 563830
999257 758257
129661 20836
335793 53577
933652 470999
925984 667562
151887 860821
500384 322693
812543 296718
979159 470977
489677 12436
868710 559616
708976 159163
766854 218622
241069 464102
497986 539984
271953 500205
244369 773344
404956 139979
567439 892233
621815 426556
8368 546459
573683 629512
456278 231283
54279 404239
832079 315922
417775 633907
737123 594742
950996 412477
686265 438578
598719 839453
334926 833900
835689 190777
519900 631193
256571 826070
764317 471588
477235 883775
153459 432429
590379 209456
524542 797210
145885 92678
240089 769839
495032 50770
671398 957464
758733 508534
366914 819723
856858 438143
581308 653734
247956 475403
244516 334003
442026 94926
3344 172072
416689 404334
195797 697119
396907 981748
416346 476476
527592 558030
263442 80903
939154 441458
754880 460675
346378 154497
876703 987583
551407 279749
45196 386938
934139 132503
155605 832535
806647 822654
728318 38093
230111 261624
144914 190999
632023 261677
578983 549362
646257 799453
307569 144614
868612 689179
704734 131560
160433 933799
401762 77843
181955 452134
136890 846912
906202 740849
237993 334057
402732 953715
145607 382576
539252 142365
933709 543866
949228 872611
254333 560184
133995 890707
466369 312615
395307 959741
150507 42662
226379 715841
658290 357344
90945 628413
981346 795116
853235 695891
92774 102827
184915 885923
519071 784725
757029 969314
248881 739524
722124 517683
100806 934088
275330 156926
206644 886259
386643 910256
409630 801877
417797 621484
191414 26003
797274 862727
993925 293941
371689 984909
114114 605987
95194 33309
