307886 453320
734802 129468
428247 573480
917561 939329
275211 560531
105124 253321
516657 642173
793534 980958
732097 823649
921226 533974
818339 270375
501897 582210
828228 155239
719127 348092
364319 627774
727660 887340
185115 723966
554904 253491
94971 98043
434697 315880
839866 761361
530143 735754
578614 66939
577243 510614
593954 790381
166608 798320
975584 262330
442405 725345
760638 986650
569349 853795
478622 830408
523249 373510
644797 32998
65564 406432
779094 376363
919708 258158
398953 951086
228160 933434
278884 968467
955545 790701
802518 255992
13448 747123
147083 366355
800478 586354
415362 226988
82651 273288
892438 316071
44096 687466
886336 905266
484227 208116
858038 412074
80324 735871
256928 735854
827114 612653
404825 626993
875093 168457
456003 605651
665918 159300
631103 28789
99645 978783
173449 64452
269170 121828
716837 372543
420370 808642
785372 645342
356006 772567
211455 417952
560257 526920
830364 210936
896502 780899
822834 479351
186869 642194
224951 726412
779392 688872
258824 406307
241183 71986
230264 107613
508503 193486
246851 811713
766304 187665
324673 117809
335376 695137
861331 878509
519231 649361
21740 420308
960812 424078
892454 144267
108835 140036
187421 777884
612971 121854
751580 166128
771016 826325
429983 993042
271573 65864
455680 136044
232167 629870
849975 403404
586061 301504
700543 811456
443150 372579
308212 764222
780102 265281
71301 480854
512911 592418
627529 270503
652091 168234
644283 923050
579494 255395
990280 787169
605970 56161
123512 544956
256700 77529
238026 949546
50491 820671
584714 193396
264362 52398
415053 24416
802686 255819
561285 277504
233652 418975
372688 279332
677876 71089
354059 628910
478818 660646
111007 568057
617842 710015
333938 410288
686714 897781
141029 870895
331387 856683
676101 126628
678553 725449
808563 438530
695961 758256
464691 558126
669177 325232
388016 324255
507066 728337
974004 388907
275185 398227
935149 406675
121278 907370
903670 941318
388459 254316
756823 955363
310418 761006
84855 468812
74506 319106
671456 293419
540049 739056
426997 92748
119148 869858
792847 474687
594265 674545
372385 800242
15528 445680
179335 82109
27337 308420
2783 664994
523919 283657
847953 932523
479469 556756
786 753544
103232 63778
441575 361844
745641 35677
798776 654715
691120 8166
509712 375497
464927 665768
990932 248707
106949 842828
484750 867698
636642 752171
865585 776037
702013 895018
911397 672769
338531 101891
988287 800422
205598 287860
163292 66368
714649 568635
433050 427496
41452 134542
603066 577181
839128 937069
814884 697159
371263 238023
309636 526192
554644 551334
174703 416439
400574 824404
575871 937809
205976 977402
629749 604528
543718 936436
430740 64889
428151 312826
875496 957514
332929 190075
398699 985868
581627 791130
424252 522159
577345 607705
730755 196058
997696 574928
253769 513240
927636 839765
124082 610307
179291 357083
168641 704677
253756 772143
895673 314216
771181 300320
669750 63307
433905 653340
236598 119128
474183 200105
333057 247018
222660 338767
821547 112984
606819 497777
145623 179849
717900 772309
832066 356222
151628 26897
987553 542525
441373 265012
220288 284410
336988 106396
183462 105601
833642 734668
517153 289324
308246 910102
120454 698272
213242 208540
946370 634848
2412 663017
790704 919974
701862 455981
880290 978698
994041 529235
941276 527619
741037 647598
683811 128357
352488 176405
22302 468219
419636 686038
217486 808992
930958 978599
999025 763029
587305 70690
703136 815306
213407 864947
873820 174920
624491 808706
410301 109351
424010 46599
183374 632678
210048 300713
185955 802118
653965 856669
190279 323682
117349 391134
388751 305978
392332 421485
70504 640407
477593 129931
509347 182236
419055 367778
118291 304204
195321 282571
