305109 357665
106610 813421
250573 851392
310241 327912
982325 701354
980735 214189
895621 402748
106307 457143
486134 497250
822413 278458
192150 351579
777104 865697
53279 249515
720839 841606
190426 948510
216134 92738
987948 342982
756651 720466
80276 199353
719704 650431
529785 833951
842270 84002
294600 757965
347314 345771
106987 460668
157469 80583
282786 310807
890391 685729
920645 53547
309330 270131
427562 863974
461998 12336
398708 500308
519716 981172
647241 588071
301134 905976
331983 476034
675122 128695
468372 241158
37788 433687
852043 102332
670296 733599
375089 811359
646313 905606
259947 826107
243169 426691
899316 422673
434483 141377
104774 490882
447009 288385
127417 651182
128191 722922
849226 939604
880804 758086
366818 525121
475041 55886
455927 214806
361255 230711
249722 493060
801253 738676
746949 586144
713247 938713
887487 137138
23168 643480
208275 593512
190833 712306
69452 636264
172592 880387
285581 40070
761260 415583
601724 735582
183961 337229
974166 101148
497608 920747
811752 571386
350912 262796
996192 880780
437954 478111
865482 304997
619162 365664
587823 696436
229216 45899
232199 333722
582953 870744
999085 749016
588058 608710
261895 7289
68443 949332
627478 246701
920173 330788
657749 195890
95553 738885
664150 373973
926371 545908
767083 610238
482314 367618
739595 761249
121959 327377
607715 649385
186394 15009
986493 975807
578917 393586
876434 380099
773426 440484
350885 436320
182486 320737
979060 239200
466188 257429
919544 929845
246233 369183
56534 826412
216335 658790
480456 296828
875683 985177
125863 963324
242395 871040
310613 885818
949116 442040
355386 996620
564212 368598
810312 78368
872792 984954
965228 489547
43769 117378
632376 449069
649704 456280
148324 246425
233428 853122
987076 70900
34840 654664
520561 815486
780389 838720
636919 523381
254319 80548
686756 60304
472311 6783
694660 362561
191741 587161
529397 906297
522473 433901
562159 343631
260633 730256
342922 972
359554 254536
684389 891167
203359 272625
972471 529035
637251 710028
662996 228440
972474 146390
862693 936427
553844 319783
58211 934563
261980 645562
200436 905975
475500 822139
871997 44516
250584 98824
424653 544508
114112 161728
281360 433409
826045 126429
977478 113421
411196 765127
969354 580206
221248 547973
425236 427509
664060 52157
48128 794267
485221 756704
798658 520452
669418 188820
958948 814518
24743 530591
205277 224037
84452 827984
517215 6783
279530 183202
367280 43323
604981 371362
64221 381723
597029 100215
482595 5031
655837 777411
327228 290307
231005 599526
453394 757687
579053 216937
612527 332081
518057 712026
789230 748198
55830 821550
227616 527349
777724 720837
252851 368223
304448 733131
68859 613270
626660 919368
727789 233819
536828 224501
85605 340363
442670 427802
249569 801772
402370 384022
90632 793314
477810 422477
967133 284982
644280 902783
438695 620012
730264 411303
23184 805864
141386 289958
636232 24031
437490 550801
416815 775985
289709 534678
462782 329136
185208 672572
562282 452827
968377 985266
180108 285171
656285 807036
959326 838479
490856 711983
417579 465926
189451 466483
478057 526779
591113 801755
53367 524415
900354 882686
868739 965931
153727 9337
551601 947901
475654 276566
346083 46612
997225 303609
924157 232613
534642 253749
536256 371002
289092 132071
84495 372881
79125 93591
218126 344709
796474 714027
28878 875033
905577 527195
977361 240626
811681 309826
