696761 377927 509
335782 903256 525
898323 339832 525
208848 852005 525
675633 542388 509
769979 550732 509
645534 319669 509
343796 21368 443
83554 879798 525
878942 700937 525
949876 749401 525
59282 855892 525
957614 935200 507
706522 61476 509
648029 655425 385
99860 435768 449
254505 680565 509
269159 445728 449
307938 98799 443
997278 441427 525
810147 213904 509
63722 381055 443
944694 792550 525
975445 808092 525
981273 735934 525
504351 584805 470
803089 153530 509
87980 127912 354
368546 396598 436
487633 745552 509
465806 311453 449
934271 279731 525
50634 187657 383
914267 275272 525
356193 476274 449
598315 766909 509
780619 812924 468
806269 495893 509
111981 15805 354
985027 137446 525
290190 953790 525
136612 803406 509
585818 878165 525
311678 681460 509
26748 298848 443
558069 623883 447
987571 720672 525
999173 795882 525
266293 364882 441
107731 784533 509
830204 107668 509
95398 109511 354
923273 329799 525
83430 159390 383
622128 3857 470
15564 462141 449
126632 400082 443
330683 700454 509
50959 166345 383
330822 584121 470
423927 984239 525
815901 184858 509
205363 193267 360
788975 565360 509
500376 736948 509
244361 826497 509
322231 962984 525
522367 368622 470
697801 623037 509
237356 289751 407
626892 97079 509
675450 176449 509
693826 231895 509
920296 784357 525
406249 661298 509
300668 649763 509
494884 34400 449
1515 838402 525
134293 425617 449
572677 72640 470
263513 655141 509
949578 211419 525
336861 576764 470
501245 103071 449
743834 127167 509
264373 3699 443
365532 724144 509
589395 284421 470
483715 103796 449
402437 868395 525
565155 712350 509
565207 684389 509
779901 203292 509
767092 995463 525
418592 488442 444
448616 907826 525
438722 284939 449
830107 621499 509
490892 918704 525
55711 900744 525
323914 710568 509
243330 969489 525
556313 582875 421
565213 692729 509
15694 567802 470
30424 564945 470
991292 494413 525
307401 76767 443
979330 693787 525
643515 933992 525
162767 558530 470
217927 527993 470
71141 453353 449
967667 539830 525
273031 724502 509
924833 250416 525
618630 233296 470
603294 553617 434
622969 852513 525
613532 171662 470
271688 340309 389
277355 258853 407
570888 507122 470
764399 66633 509
979333 640586 525
532071 624546 452
86304 62965 351
172933 903111 525
885575 993147 507
979557 77096 525
545609 569687 452
144803 546205 470
418229 310830 449
589481 619722 447
669252 619079 509
605470 444351 470
529459 890858 525
718348 340179 509
843102 750679 525
805324 169582 509
562892 793252 509
550169 279928 470
43960 451108 449
262378 722543 509
376983 192976 443
824306 101713 509
623500 131498 470
822868 494555 509
729597 861293 525
781647 98123 509
360063 372328 410
594937 528388 452
365103 804126 509
214260 622782 470
747122 711212 424
206836 80519 383
697818 879101 525
944108 733202 525
66184 849022 525
223648 98201 386
428361 453546 400
793925 707581 468
538350 349826 470
940977 272231 525
323862 106255 443
339893 593614 470
979825 176050 525
891821 533439 525
956040 195404 525
398112 302396 441
146942 511811 449
197946 910640 525
240651 207242 443
361806 594046 470
954086 799876 525
515252 749973 509
741268 858942 525
478306 428813 444
555601 407957 470
250332 951372 525
950730 897560 507
522714 574020 452
800702 315655 509
451094 4939 449
857944 312987 525
870980 178889 525
136199 953303 525
25748 970981 525
205227 895670 525
928778 379686 525
31364 174918 383
533533 469432 470
922073 36290 525
879797 852984 432
308734 737685 509
563781 6730 470
792563 842907 525
920537 534078 525
87370 978039 525
684438 298120 509
196836 774891 509
857069 247323 525
108292 147590 375
694581 605836 509
604220 838518 525
270346 238474 407
455044 101235 449
724857 225286 509
674192 140977 509
702227 315591 509
172195 631346 509
801728 442892 509
736115 814537 468
865736 37413 525
444464 142795 449
860322 328324 525
888763 926629 476
402983 329773 441
513314 989776 525
720199 987518 525
242338 181304 443
553658 935575 525
864283 277686 525
258465 736657 509
306964 691024 509
287490 565554 470
898081 8268 525
706513 959495 525
870919 402069 525
105724 300840 443
305590 454927 449
743798 7319 509
697264 862243 525
604939 843003 525
251332 240231 368
804124 257943 509
877581 769263 525
927438 27912 525
870485 969247 507
486528 832730 509
259935 375959 441
581472 930529 525
207770 688498 509
351403 461608 449
895363 407897 525
781502 502603 509
965788 181272 525
858600 995226 507
568952 973529 525
353453 456823 449
